logger;logger;0;BD;BD
login2;a4101522cba49f3e51005ac939125e81bac05a20c5fa4a82e43f6a2959b3581a;20;Dobczyce;M
login4;e97ff269ba74e00a747b3973d8d5668c8531f3c88b8d2dbadff8390de504750e;20;Dobczyce;M
login7;939820ee23776d615df178d02619f94e8784cad790aebe203a4956649768d1b2;20;Dobczyce;M
login8;03477f5486cd681b3f5d77f825a777ce530b8f4bc2764917469ebf740265743a;20;Dobczyce;M
login10;6eebd1520962064608ac7aa29e98ca08ee214f2e0996a6835b4d03c3f8770fea;20;Krakow;M
login1;01f1cb72f08631bb247699037b43aaff462aeef0a1daa5acf2ab1a3bddeea5d1;21;LOL;M
